COQAUX1 39a47ff3392edaca73cba8a319e122a8 /home/emendoza/Documents/University/TutorialResources/2024-31251-data-structures-and-algorithms/code/vfa/ColorTest.v
1133 1139 proof_build_time "0.002"
1133 1139 proof_check_time "0.000"
1588 1594 proof_build_time "0.001"
1588 1594 proof_check_time "0.000"
2070 2076 proof_build_time "0.002"
2070 2076 proof_check_time "0.000"
2412 2418 proof_build_time "0.001"
2412 2418 proof_check_time "0.000"
2768 2774 proof_build_time "0.001"
2768 2774 proof_check_time "0.000"
3359 3365 proof_build_time "0.002"
3359 3365 proof_check_time "0.000"
3744 3750 proof_build_time "0.001"
3744 3750 proof_check_time "0.000"
4177 4183 proof_build_time "0.001"
4177 4183 proof_check_time "0.000"
4388 4394 proof_build_time "0.001"
4388 4394 proof_check_time "0.000"
4710 4716 proof_build_time "0.001"
4710 4716 proof_check_time "0.000"
5054 5060 proof_build_time "0.001"
5054 5060 proof_check_time "0.000"
5481 5487 proof_build_time "0.001"
5481 5487 proof_check_time "0.000"
5799 5805 proof_build_time "0.001"
5799 5805 proof_check_time "0.000"
6176 6182 proof_build_time "0.001"
6176 6182 proof_check_time "0.000"
6536 6542 proof_build_time "0.001"
6536 6542 proof_check_time "0.000"
8936 8942 proof_build_time "0.007"
8936 8942 proof_check_time "0.000"
0 0 vo_compile_time "0.305"
