COQAUX1 199de0819ac5664596741fa38422a009 /home/emendoza/Documents/University/TutorialResources/2024-31251-data-structures-and-algorithms/code/vfa/DecideTest.v
1067 1073 proof_build_time "0.001"
1067 1073 proof_check_time "0.000"
1401 1407 proof_build_time "0.001"
1401 1407 proof_check_time "0.000"
2760 2766 proof_build_time "0.003"
2760 2766 proof_check_time "0.000"
0 0 vo_compile_time "0.201"
