COQAUX1 28187db1399f92af56cb9ebb75b11ed8 /home/emendoza/Documents/University/TutorialResources/2024-31251-data-structures-and-algorithms/code/vfa/ExtractTest.v
1038 1044 proof_build_time "0.003"
1038 1044 proof_check_time "0.000"
1406 1412 proof_build_time "0.003"
1406 1412 proof_check_time "0.000"
1813 1819 proof_build_time "0.002"
1813 1819 proof_check_time "0.000"
3255 3261 proof_build_time "0.004"
3255 3261 proof_check_time "0.000"
0 0 vo_compile_time "0.245"
