COQAUX1 1a8896fa768fc5c27c8722d0e03300c1 /home/emendoza/Documents/University/TutorialResources/2024-31251-data-structures-and-algorithms/code/vfa/PermTest.v
1259 1265 proof_build_time "0.003"
1259 1265 proof_check_time "0.000"
1553 1559 proof_build_time "0.002"
1553 1559 proof_check_time "0.000"
1910 1916 proof_build_time "0.001"
1910 1916 proof_check_time "0.000"
3403 3409 proof_build_time "0.006"
3403 3409 proof_check_time "0.000"
0 0 vo_compile_time "0.245"
