COQAUX1 46a0b049e0cf95d7f58896737d18ffa9 /home/emendoza/Documents/University/TutorialResources/2024-31251-data-structures-and-algorithms/code/vfa/PrefaceTest.v
1874 1880 proof_build_time "0.003"
1874 1880 proof_check_time "0.000"
0 0 vo_compile_time "0.144"
