COQAUX1 9db0004100b85c16410475a900243af5 /home/emendoza/Documents/University/TutorialResources/2024-31251-data-structures-and-algorithms/code/vfa/SearchTreeTest.v
984 990 proof_build_time "0.001"
984 990 proof_check_time "0.000"
1376 1382 proof_build_time "0.002"
1376 1382 proof_check_time "0.000"
1632 1638 proof_build_time "0.001"
1632 1638 proof_check_time "0.000"
1910 1916 proof_build_time "0.001"
1910 1916 proof_check_time "0.000"
2337 2343 proof_build_time "0.001"
2337 2343 proof_check_time "0.000"
2822 2828 proof_build_time "0.002"
2822 2828 proof_check_time "0.000"
3113 3119 proof_build_time "0.001"
3113 3119 proof_check_time "0.000"
3551 3557 proof_build_time "0.002"
3551 3557 proof_check_time "0.000"
3951 3957 proof_build_time "0.001"
3951 3957 proof_check_time "0.000"
4288 4294 proof_build_time "0.001"
4288 4294 proof_check_time "0.000"
4754 4760 proof_build_time "0.002"
4754 4760 proof_check_time "0.000"
5112 5118 proof_build_time "0.001"
5112 5118 proof_check_time "0.000"
5507 5513 proof_build_time "0.002"
5507 5513 proof_check_time "0.000"
5779 5785 proof_build_time "0.001"
5779 5785 proof_check_time "0.000"
8206 8212 proof_build_time "0.007"
8206 8212 proof_check_time "0.000"
0 0 vo_compile_time "0.237"
